<?xml version="1.0" encoding="UTF-8" standalone="no"?>
<!-- Created with Inkscape (http://www.inkscape.org/) -->

<svg
   xmlns:dc="http://purl.org/dc/elements/1.1/"
   xmlns:cc="http://creativecommons.org/ns#"
   xmlns:rdf="http://www.w3.org/1999/02/22-rdf-syntax-ns#"
   xmlns:svg="http://www.w3.org/2000/svg"
   xmlns="http://www.w3.org/2000/svg"
   xmlns:xlink="http://www.w3.org/1999/xlink"
   xmlns:sodipodi="http://sodipodi.sourceforge.net/DTD/sodipodi-0.dtd"
   xmlns:inkscape="http://www.inkscape.org/namespaces/inkscape"
   width="58.379848mm"
   height="58.379848mm"
   viewBox="0 0 58.379848 58.379848"
   version="1.1"
   id="svg9618"
   inkscape:version="0.92.2 5c3e80d, 2017-08-06"
   sodipodi:docname="face-access-rights.svg">
  <defs
     id="defs9612">
    <radialGradient
       r="9.500001"
       fy="14.729167"
       fx="17.812502"
       cy="14.729167"
       cx="17.812502"
       gradientTransform="matrix(0,-1,0.6315789,0,2.6079603,38.294806)"
       gradientUnits="userSpaceOnUse"
       id="radialGradient9677"
       xlink:href="#linearGradient7557"
       inkscape:collect="always" />
    <linearGradient
       inkscape:collect="always"
       id="linearGradient7557">
      <stop
         style="stop-color:#eeeeec;stop-opacity:1"
         offset="0"
         id="stop7559" />
      <stop
         style="stop-color:#eeeeec;stop-opacity:1"
         offset="1"
         id="stop7561" />
    </linearGradient>
    <radialGradient
       r="0.90625"
       fy="2.0625"
       fx="11.15625"
       cy="2.0625"
       cx="11.15625"
       gradientTransform="matrix(1,0,0,0.6206897,0,0.7823276)"
       gradientUnits="userSpaceOnUse"
       id="radialGradient9679"
       xlink:href="#linearGradient7582"
       inkscape:collect="always" />
    <linearGradient
       inkscape:collect="always"
       id="linearGradient7582">
      <stop
         style="stop-color:#ffffff;stop-opacity:1;"
         offset="0"
         id="stop7584" />
      <stop
         style="stop-color:#ffffff;stop-opacity:0;"
         offset="1"
         id="stop7586" />
    </linearGradient>
    <radialGradient
       r="21.38998"
       fy="41.63604"
       fx="24.57196"
       cy="41.63604"
       cx="24.57196"
       gradientTransform="matrix(1,0,0,0.1983471,0,33.377652)"
       gradientUnits="userSpaceOnUse"
       id="radialGradient9681"
       xlink:href="#linearGradient3823"
       inkscape:collect="always" />
    <linearGradient
       inkscape:collect="always"
       id="linearGradient3823">
      <stop
         style="stop-color:#000000;stop-opacity:1;"
         offset="0"
         id="stop3825" />
      <stop
         style="stop-color:#000000;stop-opacity:0;"
         offset="1"
         id="stop3827" />
    </linearGradient>
    <radialGradient
       r="21.38998"
       fy="41.63604"
       fx="24.57196"
       cy="41.63604"
       cx="24.57196"
       gradientTransform="matrix(1,0,0,0.1983471,0,33.377652)"
       gradientUnits="userSpaceOnUse"
       id="radialGradient9683"
       xlink:href="#linearGradient3823"
       inkscape:collect="always" />
    <linearGradient
       y2="45.194965"
       x2="36.227631"
       y1="30.029789"
       x1="13.819278"
       gradientTransform="matrix(0,0.673693,-0.676136,0,37.10227,14.81577)"
       gradientUnits="userSpaceOnUse"
       id="linearGradient9685"
       xlink:href="#linearGradient6826"
       inkscape:collect="always" />
    <linearGradient
       id="linearGradient6826"
       inkscape:collect="always">
      <stop
         id="stop6828"
         offset="0"
         style="stop-color:#babdb6;stop-opacity:1" />
      <stop
         id="stop6830"
         offset="1"
         style="stop-color:#eeeeec;stop-opacity:1" />
    </linearGradient>
    <linearGradient
       y2="30.759407"
       x2="17"
       y1="45.248375"
       x1="17"
       gradientTransform="matrix(0,0.625,-0.676136,0,37.10227,15.875)"
       gradientUnits="userSpaceOnUse"
       id="linearGradient9687"
       xlink:href="#linearGradient6958"
       inkscape:collect="always" />
    <linearGradient
       inkscape:collect="always"
       id="linearGradient6958">
      <stop
         style="stop-color:#000000;stop-opacity:1"
         offset="0"
         id="stop6960" />
      <stop
         style="stop-color:#888a85;stop-opacity:0;"
         offset="1"
         id="stop6962" />
    </linearGradient>
    <linearGradient
       y2="24.249567"
       x2="16.864777"
       y1="37.34367"
       x1="15.406166"
       gradientTransform="matrix(0,0.673693,-0.676136,0,37.10227,14.81577)"
       gradientUnits="userSpaceOnUse"
       id="linearGradient9689"
       xlink:href="#linearGradient7582"
       inkscape:collect="always" />
    <linearGradient
       y2="20.5"
       x2="22.328388"
       y1="20.5"
       x1="33.120464"
       gradientTransform="matrix(0.727273,0,0,0.999999,12.27273,-34.84375)"
       gradientUnits="userSpaceOnUse"
       id="linearGradient9691"
       xlink:href="#linearGradient4542"
       inkscape:collect="always" />
    <linearGradient
       id="linearGradient4542"
       inkscape:collect="always">
      <stop
         id="stop4544"
         offset="0"
         style="stop-color:#888a85;stop-opacity:1" />
      <stop
         id="stop4546"
         offset="1"
         style="stop-color:#888a85;stop-opacity:0" />
    </linearGradient>
    <linearGradient
       y2="32.298042"
       x2="32.347187"
       y1="45.029243"
       x1="33.258583"
       gradientTransform="matrix(0,0.673693,-0.676136,0,37.10227,14.81577)"
       gradientUnits="userSpaceOnUse"
       id="linearGradient9693"
       xlink:href="#linearGradient3807"
       inkscape:collect="always" />
    <linearGradient
       inkscape:collect="always"
       id="linearGradient3807">
      <stop
         style="stop-color:#729fcf;stop-opacity:1"
         offset="0"
         id="stop3809" />
      <stop
         style="stop-color:#ffffff;stop-opacity:1"
         offset="1"
         id="stop3811" />
    </linearGradient>
    <linearGradient
       y2="33.390598"
       x2="13.654268"
       y1="36.094822"
       x1="7.9505267"
       gradientUnits="userSpaceOnUse"
       id="linearGradient9695"
       xlink:href="#linearGradient3813"
       inkscape:collect="always" />
    <linearGradient
       inkscape:collect="always"
       id="linearGradient3813">
      <stop
         style="stop-color:#3465a4;stop-opacity:1"
         offset="0"
         id="stop3815" />
      <stop
         style="stop-color:#729fcf;stop-opacity:1"
         offset="1"
         id="stop3817" />
    </linearGradient>
    <linearGradient
       y2="20.5"
       x2="22.328388"
       y1="20.5"
       x1="33.120464"
       gradientTransform="matrix(0.727273,0,0,0.999999,12.27273,-34.84375)"
       gradientUnits="userSpaceOnUse"
       id="linearGradient9701"
       xlink:href="#linearGradient3801"
       inkscape:collect="always" />
    <linearGradient
       inkscape:collect="always"
       id="linearGradient3801">
      <stop
         style="stop-color:#729fcf;stop-opacity:1"
         offset="0"
         id="stop3803" />
      <stop
         style="stop-color:#729fcf;stop-opacity:0"
         offset="1"
         id="stop3805" />
    </linearGradient>
    <linearGradient
       y2="45.634029"
       x2="47.084221"
       y1="24.765099"
       x1="1.6736434"
       gradientTransform="matrix(0,0.673693,-0.676136,0,37.10227,14.81577)"
       gradientUnits="userSpaceOnUse"
       id="linearGradient9703"
       xlink:href="#linearGradient7614"
       inkscape:collect="always" />
    <linearGradient
       inkscape:collect="always"
       id="linearGradient7614">
      <stop
         style="stop-color:#fcaf3e;stop-opacity:1"
         offset="0"
         id="stop7616" />
      <stop
         id="stop7628"
         offset="0.4873454"
         style="stop-color:#fff6a1;stop-opacity:1" />
      <stop
         style="stop-color:#fcaf3e;stop-opacity:1"
         offset="1"
         id="stop7618" />
    </linearGradient>
    <linearGradient
       y2="33.578098"
       x2="19.208227"
       y1="35.541569"
       x1="9.172595"
       gradientUnits="userSpaceOnUse"
       id="linearGradient9705"
       xlink:href="#linearGradient3793"
       inkscape:collect="always" />
    <linearGradient
       inkscape:collect="always"
       id="linearGradient3793">
      <stop
         style="stop-color:#ce5c00;stop-opacity:1;"
         offset="0"
         id="stop3795" />
      <stop
         style="stop-color:#f57900;stop-opacity:1"
         offset="1"
         id="stop3797" />
    </linearGradient>
    <linearGradient
       y2="30.759407"
       x2="17"
       y1="45.248375"
       x1="17"
       gradientTransform="matrix(0,0.625,-0.676136,0,37.10227,15.875)"
       gradientUnits="userSpaceOnUse"
       id="linearGradient9707"
       xlink:href="#linearGradient3787"
       inkscape:collect="always" />
    <linearGradient
       id="linearGradient3787"
       inkscape:collect="always">
      <stop
         id="stop3789"
         offset="0"
         style="stop-color:#f57900;stop-opacity:1" />
      <stop
         id="stop3791"
         offset="1"
         style="stop-color:#f57900;stop-opacity:0" />
    </linearGradient>
    <linearGradient
       y2="20.5"
       x2="22.328388"
       y1="20.5"
       x1="33.120464"
       gradientTransform="matrix(0.727273,0,0,0.999999,12.27273,-34.84375)"
       gradientUnits="userSpaceOnUse"
       id="linearGradient9711"
       xlink:href="#linearGradient3781"
       inkscape:collect="always" />
    <linearGradient
       inkscape:collect="always"
       id="linearGradient3781">
      <stop
         style="stop-color:#ce5c00;stop-opacity:1"
         offset="0"
         id="stop3783" />
      <stop
         style="stop-color:#ce5c00;stop-opacity:0"
         offset="1"
         id="stop3785" />
    </linearGradient>
    <radialGradient
       r="5.055244"
       fy="5.3414755"
       fx="23.681061"
       cy="5.3414755"
       cx="23.681061"
       gradientTransform="matrix(-0.1907818,1.5922835,-1.4345654,1.1802872,15.217766,-19.515538)"
       gradientUnits="userSpaceOnUse"
       id="radialGradient9713"
       xlink:href="#linearGradient7491"
       inkscape:collect="always" />
    <linearGradient
       inkscape:collect="always"
       id="linearGradient7491">
      <stop
         style="stop-color:#eeeeec;stop-opacity:1"
         offset="0"
         id="stop7493" />
      <stop
         style="stop-color:#babdb6;stop-opacity:1"
         offset="1"
         id="stop7495" />
    </linearGradient>
    <radialGradient
       r="0.90625"
       fy="2.0625"
       fx="11.15625"
       cy="2.0625"
       cx="11.15625"
       gradientTransform="matrix(1,0,0,0.6206897,0,0.7823276)"
       gradientUnits="userSpaceOnUse"
       id="radialGradient9715"
       xlink:href="#linearGradient7582"
       inkscape:collect="always" />
    <radialGradient
       r="4.4921517"
       fy="5.052979"
       fx="24.090876"
       cy="5.052979"
       cx="24.090876"
       gradientTransform="matrix(-0.3629926,-1.6372128,1.8500902,-2.1525103,1.7477513,74.824986)"
       gradientUnits="userSpaceOnUse"
       id="radialGradient9717"
       xlink:href="#linearGradient7549"
       inkscape:collect="always" />
    <linearGradient
       inkscape:collect="always"
       id="linearGradient7549">
      <stop
         style="stop-color:#ffffff;stop-opacity:1"
         offset="0"
         id="stop7551" />
      <stop
         style="stop-color:#eeeeec;stop-opacity:1"
         offset="1"
         id="stop7553" />
    </linearGradient>
    <linearGradient
       y2="15.894469"
       x2="22.697027"
       y1="16.830494"
       x1="20.722668"
       gradientTransform="matrix(-0.235981,-1.1304264,0.6373638,-0.915432,7.1985993,53.314931)"
       gradientUnits="userSpaceOnUse"
       id="linearGradient9719"
       xlink:href="#linearGradient3823"
       inkscape:collect="always" />
    <linearGradient
       inkscape:collect="always"
       xlink:href="#linearGradient6958"
       id="linearGradient10481"
       gradientUnits="userSpaceOnUse"
       gradientTransform="matrix(0,0.625,-0.676136,0,37.10227,15.875)"
       x1="17"
       y1="45.248375"
       x2="17"
       y2="30.759407" />
    <linearGradient
       inkscape:collect="always"
       xlink:href="#linearGradient7582"
       id="linearGradient10483"
       gradientUnits="userSpaceOnUse"
       gradientTransform="matrix(0,0.673693,-0.676136,0,37.10227,14.81577)"
       x1="15.406166"
       y1="37.34367"
       x2="16.864777"
       y2="24.249567" />
    <linearGradient
       inkscape:collect="always"
       xlink:href="#linearGradient7582"
       id="linearGradient10485"
       gradientUnits="userSpaceOnUse"
       gradientTransform="matrix(0,0.673693,-0.676136,0,37.10227,14.81577)"
       x1="15.406166"
       y1="37.34367"
       x2="16.864777"
       y2="24.249567" />
  </defs>
  <sodipodi:namedview
     id="base"
     pagecolor="#ffffff"
     bordercolor="#666666"
     borderopacity="1.0"
     inkscape:pageopacity="0.0"
     inkscape:pageshadow="2"
     inkscape:zoom="2"
     inkscape:cx="114.22524"
     inkscape:cy="108.57602"
     inkscape:document-units="mm"
     inkscape:current-layer="layer1"
     showgrid="false"
     fit-margin-top="0"
     fit-margin-left="0"
     fit-margin-right="0"
     fit-margin-bottom="0"
     inkscape:window-width="1024"
     inkscape:window-height="742"
     inkscape:window-x="0"
     inkscape:window-y="2"
     inkscape:window-maximized="1" />
  <metadata
     id="metadata9615">
    <rdf:RDF>
      <cc:Work
         rdf:about="">
        <dc:format>image/svg+xml</dc:format>
        <dc:type
           rdf:resource="http://purl.org/dc/dcmitype/StillImage" />
        <dc:title />
      </cc:Work>
    </rdf:RDF>
  </metadata>
  <g
     inkscape:label="Layer 1"
     inkscape:groupmode="layer"
     id="layer1"
     transform="translate(-29.508379,-114.06476)">
    <g
       id="g887">
      <g
         id="g1957-2"
         style="display:inline"
         transform="matrix(0.33072917,0,0,-0.33072917,-61.687115,182.94217)">
        <rect
           style="fill:#787dab;fill-opacity:1;stroke:none;stroke-width:0.50959998;stroke-miterlimit:3.86400008;stroke-dasharray:3.05759983, 3.05759983;stroke-dashoffset:0;stroke-opacity:1"
           id="rect2042-7-3-9"
           width="176"
           height="48"
           x="276"
           y="-79.999939"
           transform="scale(1,-1)" />
        <rect
           style="fill:#4d4d4d;fill-opacity:1;stroke:none;stroke-width:0.50959998;stroke-miterlimit:3.86400008;stroke-dasharray:3.05759983, 3.05759983;stroke-dashoffset:0;stroke-opacity:1"
           id="rect2046-0-7-1"
           width="175.64682"
           height="7.3484588"
           x="276"
           y="-79.999939"
           transform="scale(1,-1)" />
        <text
           xml:space="preserve"
           style="font-style:normal;font-variant:normal;font-weight:normal;font-stretch:normal;line-height:0%;font-family:monospace;-inkscape-font-specification:Monospace;text-align:start;writing-mode:lr-tb;text-anchor:start;display:inline;fill:#ffffff;fill-opacity:1;stroke:none"
           x="301.48746"
           y="-74.609039"
           id="text8282-5-3-9-5-2"
           transform="scale(1,-1)"><tspan
             sodipodi:role="line"
             id="tspan8284-7-7-3-9-7"
             x="301.48746"
             y="-74.609039"
             style="font-style:normal;font-variant:normal;font-weight:normal;font-stretch:normal;font-size:5.5999999px;line-height:125%;font-family:monospace;-inkscape-font-specification:Monospace;text-align:start;writing-mode:lr-tb;text-anchor:start;fill:#ffffff;fill-opacity:1">use <tspan
   style="font-weight:bold;font-family:monospace;-inkscape-font-specification:'Monospace Bold'"
   id="tspan4139-6-2-0">man</tspan> command for more information</tspan></text>
        <rect
           style="display:inline;fill:none;fill-opacity:1;stroke:#000000;stroke-width:0.51859391;stroke-miterlimit:3.86400008;stroke-dasharray:3.11156329, 3.11156329;stroke-dashoffset:0;stroke-opacity:1"
           id="rect1938-6-5-9"
           width="176"
           height="176"
           x="276"
           y="-207.99994"
           transform="scale(1,-1)" />
      </g>
      <g
         transform="matrix(0.26458334,0,0,0.26458334,73.451496,159.82228)"
         inkscape:label="Livello 1"
         id="g9613"
         style="display:inline;enable-background:new">
        <path
           inkscape:connector-curvature="0"
           sodipodi:nodetypes="css"
           id="path9615"
           d="m 13.078183,14.013633 c 0.521046,2.495981 -1.483158,8.00767 -4.473669,12.302877 -2.9905107,4.295207 -5.8404697,5.755448 -6.3615157,3.259467"
           style="fill:none;stroke:#babdb6;stroke-width:3;stroke-linecap:round;stroke-linejoin:miter;stroke-miterlimit:4;stroke-dashoffset:0.69999993;stroke-opacity:1" />
        <path
           inkscape:connector-curvature="0"
           id="path9617"
           d="m 6.7166663,17.273099 c 2.9905107,-4.295207 5.8404707,-5.755448 6.3615167,-3.259466 0.521046,2.495981 -1.483158,8.00767 -4.473669,12.302877 -2.9905107,4.295207 -5.8404697,5.755448 -6.3615157,3.259467 -0.521046,-2.495982 1.483157,-8.007671 4.473668,-12.302878 z"
           style="fill:none;stroke:url(#radialGradient9677);stroke-width:1;stroke-linecap:round;stroke-linejoin:miter;stroke-miterlimit:4;stroke-dashoffset:0.69999993;stroke-opacity:1" />
        <ellipse
           ry="0.5625"
           rx="0.90625"
           cy="2.0625"
           cx="11.15625"
           transform="matrix(0,-1.1034483,1.7777778,0,6.6698473,35.658005)"
           id="path9619"
           style="display:inline;overflow:visible;visibility:visible;fill:url(#radialGradient9679);fill-opacity:1;fill-rule:evenodd;stroke:none;marker:none;enable-background:accumulate" />
        <g
           id="g9621"
           style="opacity:0.82173923">
          <ellipse
             ry="4.2426405"
             rx="21.38998"
             cy="41.63604"
             cx="24.57196"
             transform="matrix(1.0730482,0,0,1.3541667,-2.2852925,-15.780108)"
             id="path9623"
             style="opacity:0.15217393;fill:url(#radialGradient9681);fill-opacity:1;stroke:none" />
          <ellipse
             ry="4.2426405"
             rx="21.38998"
             cy="41.63604"
             cx="24.57196"
             transform="matrix(0.4974282,0,0,0.6617912,14.622682,12.732021)"
             id="path9625"
             style="opacity:0.15217393;fill:url(#radialGradient9683);fill-opacity:1;stroke:none" />
        </g>
        <g
           id="g9627"
           transform="matrix(1.0960268,-0.6327913,0.6327913,1.0960268,-15.036604,-0.7801997)">
          <path
             inkscape:connector-curvature="0"
             id="path9629"
             d="m 13.4375,16.5 c -3.9188838,-1e-6 -7.09375,3.157775 -7.09375,7.0625 2e-7,2.818198 1.6046259,5.300595 4,6.4375 v 1.5 l 1.5,1.5 -1.5,1.5 v 1 l 2,1 v 1 l -2,1 v 1 l 1.5,1.5 -1.5,1.5 v 1 l 2.5,2 h 2.5 l 1,-1.5 V 30 c 2.372429,-1.145434 4,-3.698516 4,-6.5 0,-3.904724 -2.987366,-7 -6.90625,-7 z m -0.09375,2 c 1.104,0 2,0.896 2,2 0,1.104 -0.896,2 -2,2 -1.104,0 -2,-0.896 -2,-2 0,-1.104 0.896,-2 2,-2 z"
             style="fill:url(#linearGradient9685);fill-opacity:1;fill-rule:evenodd;stroke:#888a85;stroke-width:0.79014969;stroke-linecap:round;stroke-linejoin:miter;stroke-miterlimit:4;stroke-dasharray:none;stroke-opacity:1"
             sodipodi:nodetypes="csccccccccccccccccsccsssc" />
          <path
             inkscape:connector-curvature="0"
             id="path9631"
             d="M 18.846598,24 H 8.028422 c 0,2.76 2.423271,5 5.409088,5 2.985817,0 5.409088,-2.24 5.409088,-5 z"
             style="opacity:0.3;fill:url(#linearGradient10481);fill-opacity:1;fill-rule:evenodd;stroke:none" />
          <path
             d="m 13.4375,17.277344 c -3.5016836,-1e-6 -6.3164062,2.80141 -6.3164062,6.285156 1e-7,2.523398 1.4335564,4.729586 3.5546872,5.736328 A 0.7767123,0.7767123 0 0 1 11.121094,30 v 1.177734 l 1.271484,1.273438 a 0.7767123,0.7767123 0 0 1 0,1.097656 l -1.271484,1.273438 v 0.197265 l 1.570312,0.785157 A 0.7767123,0.7767123 0 0 1 13.121094,36.5 v 1 a 0.7767123,0.7767123 0 0 1 -0.429688,0.695312 l -1.570312,0.785157 v 0.197265 l 1.271484,1.273438 a 0.7767123,0.7767123 0 0 1 0,1.097656 l -1.271484,1.273438 v 0.304687 l 1.99414,1.595703 h 1.8125 l 0.638672,-0.957031 V 30 a 0.7767123,0.7767123 0 0 1 0.439453,-0.699219 c 2.090763,-1.009442 3.560547,-3.300097 3.560547,-5.800781 0,-3.508607 -2.618965,-6.222656 -6.128906,-6.222656 z m -0.09375,0.445312 c 1.524208,0 2.777344,1.253136 2.777344,2.777344 0,1.524208 -1.253136,2.777344 -2.777344,2.777344 -1.524208,0 -2.777344,-1.253136 -2.777344,-2.777344 0,-1.524208 1.253136,-2.777344 2.777344,-2.777344 z"
             inkscape:href="#path1884"
             id="path9633"
             style="fill:none;stroke:#ffffff;stroke-width:0.79014969;stroke-linecap:round;stroke-linejoin:miter;stroke-miterlimit:4;stroke-dasharray:none;stroke-opacity:1"
             xlink:href="#path1884"
             inkscape:original="M 13.4375 16.5 C 9.5186162 16.499999 6.34375 19.657775 6.34375 23.5625 C 6.3437502 26.380698 7.9483759 28.863095 10.34375 30 L 10.34375 31.5 L 11.84375 33 L 10.34375 34.5 L 10.34375 35.5 L 12.34375 36.5 L 12.34375 37.5 L 10.34375 38.5 L 10.34375 39.5 L 11.84375 41 L 10.34375 42.5 L 10.34375 43.5 L 12.84375 45.5 L 15.34375 45.5 L 16.34375 44 L 16.34375 30 C 18.716179 28.854566 20.34375 26.301484 20.34375 23.5 C 20.34375 19.595276 17.356384 16.5 13.4375 16.5 z M 13.34375 18.5 C 14.44775 18.5 15.34375 19.396 15.34375 20.5 C 15.34375 21.604 14.44775 22.5 13.34375 22.5 C 12.23975 22.5 11.34375 21.604 11.34375 20.5 C 11.34375 19.396 12.23975 18.5 13.34375 18.5 z "
             inkscape:radius="-0.77663463"
             sodipodi:type="inkscape:offset" />
          <path
             sodipodi:type="inkscape:offset"
             inkscape:radius="-0.10364762"
             inkscape:original="M 13.40625 17.53125 C 13.179953 17.535742 12.940048 17.565361 12.71875 17.59375 C 11.746507 17.718472 10.844502 18.056009 10.0625 18.5625 C 10.273788 19.382459 10.603512 20.028723 11 20.59375 C 10.998818 20.562191 11 20.531846 11 20.5 C 11 19.119998 12.119999 18 13.5 18 C 14.880001 18 16 19.119998 16 20.5 C 16 21.880003 14.880001 23 13.5 23 C 13.338115 23 13.184591 22.966937 13.03125 22.9375 C 14.159156 24.243071 15.219875 25.922289 15.46875 29.3125 C 17.839227 28.416828 19.53125 26.324417 19.53125 23.5625 C 19.444481 20.923505 17.958879 18.870351 15.46875 17.84375 C 14.777284 17.614671 14.085142 17.517773 13.40625 17.53125 z M 15.46875 31.96875 C 15.356466 34.978468 14.778907 38.970391 13.4375 44.46875 L 14.78125 44.46875 L 15.46875 43.125 L 15.46875 31.96875 z "
             style="opacity:0.6;fill:url(#linearGradient10483);fill-opacity:1;fill-rule:evenodd;stroke:none"
             id="path9635"
             d="m 13.408203,17.634766 c -0.218711,0.0043 -0.454836,0.03416 -0.675781,0.0625 -0.930429,0.119358 -1.792702,0.440585 -2.546875,0.916015 0.175326,0.647181 0.436503,1.168908 0.736328,1.642578 0.125365,-1.319954 1.225798,-2.359375 2.578125,-2.359375 1.436081,0 2.603516,1.167434 2.603516,2.603516 0,1.436083 -1.167435,2.603516 -2.603516,2.603516 -0.08449,0 -0.156276,-0.01959 -0.234375,-0.03125 1.058127,1.270377 2.032881,2.937267 2.291016,6.085937 2.266579,-0.908047 3.869494,-2.924499 3.871093,-5.591797 v -0.002 c -0.08616,-2.598909 -1.537794,-4.608957 -3.992187,-5.623047 -0.680148,-0.225329 -1.359706,-0.319894 -2.027344,-0.30664 z m 1.957031,17.03125 c -0.278874,2.586914 -0.83804,5.74943 -1.796875,9.699218 h 1.150391 l 0.646484,-1.265625 z" />
          <rect
             transform="rotate(90)"
             y="-14.84375"
             x="29"
             height="0.98128641"
             width="16.311773"
             id="rect9637"
             style="opacity:0.61538463;fill:url(#linearGradient9691);fill-opacity:1;fill-rule:evenodd;stroke:none" />
        </g>
        <path
           inkscape:connector-curvature="0"
           style="opacity:0.10869565;fill:#000000;fill-opacity:1;fill-rule:evenodd;stroke:none"
           d="M 14.3125,7.0625 C 13.227249,7.087316 12.123399,7.3207085 11.0625,7.75 9.2695198,8.933921 7.864725,10.768315 7.25,13.0625 c -1.3515275,5.043964 1.6273006,10.214997 6.65625,11.5625 3.288812,0.881234 6.624418,-0.08211 8.9375,-2.28125 L 22.5,21.75 c 1.809043,-2.912445 1.940505,-6.792953 0.125,-9.9375 -1.796737,-3.1120416 -5.006603,-4.825594 -8.3125,-4.75 z m -2,4.21875 c 0.764767,-0.09561 1.558222,0.257695 1.96875,0.96875 0.278817,0.482925 0.327948,1.035658 0.1875,1.53125 0.178451,0.411241 0.218388,0.878596 0.09375,1.34375 -0.293265,1.09448 -1.43677,1.762015 -2.53125,1.46875 -1.09448,-0.293264 -1.730765,-1.43677 -1.4375,-2.53125 0.01887,-0.07043 0.06817,-0.120862 0.09375,-0.1875 -0.0033,-0.0098 0.0031,-0.02144 0,-0.03125 -0.274393,-0.86599 0.05473,-1.838917 0.875,-2.3125 0.237018,-0.136842 0.495078,-0.218131 0.75,-0.25 z"
           id="path9639" />
        <g
           id="g9641"
           transform="matrix(0.3275569,-1.222459,1.222459,0.3275569,-16.853691,23.191962)">
          <path
             inkscape:connector-curvature="0"
             id="path9643"
             d="m 13.4375,16.5 c -3.9188838,-1e-6 -7.09375,3.157775 -7.09375,7.0625 2e-7,2.818198 1.6046259,5.300595 4,6.4375 v 1.5 l 1.5,1.5 -1.5,1.5 v 1 l 2,1 v 1 l -2,1 v 1 l 1.5,1.5 -1.5,1.5 v 1 l 2.5,2 h 2.5 l 1,-1.5 V 30 c 2.372429,-1.145434 4,-3.698516 4,-6.5 0,-3.904724 -2.987366,-7 -6.90625,-7 z m -0.09375,2 c 1.104,0 2,0.896 2,2 0,1.104 -0.896,2 -2,2 -1.104,0 -2,-0.896 -2,-2 0,-1.104 0.896,-2 2,-2 z"
             style="fill:url(#linearGradient9693);fill-opacity:1;fill-rule:evenodd;stroke:url(#linearGradient9695);stroke-width:0.79014969;stroke-linecap:round;stroke-linejoin:miter;stroke-miterlimit:4;stroke-dasharray:none;stroke-opacity:1"
             sodipodi:nodetypes="csccccccccccccccccsccsssc" />
          <path
             inkscape:connector-curvature="0"
             id="path9645"
             d="M 18.846598,24 H 8.028422 c 0,2.76 2.423271,5 5.409088,5 2.985817,0 5.409088,-2.24 5.409088,-5 z"
             style="opacity:0.3;fill:url(#linearGradient9687);fill-opacity:1;fill-rule:evenodd;stroke:none" />
          <path
             d="m 13.4375,17.277344 c -3.5016836,-1e-6 -6.3164062,2.80141 -6.3164062,6.285156 1e-7,2.523398 1.4335564,4.729586 3.5546872,5.736328 A 0.7767123,0.7767123 0 0 1 11.121094,30 v 1.177734 l 1.271484,1.273438 a 0.7767123,0.7767123 0 0 1 0,1.097656 l -1.271484,1.273438 v 0.197265 l 1.570312,0.785157 A 0.7767123,0.7767123 0 0 1 13.121094,36.5 v 1 a 0.7767123,0.7767123 0 0 1 -0.429688,0.695312 l -1.570312,0.785157 v 0.197265 l 1.271484,1.273438 a 0.7767123,0.7767123 0 0 1 0,1.097656 l -1.271484,1.273438 v 0.304687 l 1.99414,1.595703 h 1.8125 l 0.638672,-0.957031 V 30 a 0.7767123,0.7767123 0 0 1 0.439453,-0.699219 c 2.090763,-1.009442 3.560547,-3.300097 3.560547,-5.800781 0,-3.508607 -2.618965,-6.222656 -6.128906,-6.222656 z m -0.09375,0.445312 c 1.524208,0 2.777344,1.253136 2.777344,2.777344 0,1.524208 -1.253136,2.777344 -2.777344,2.777344 -1.524208,0 -2.777344,-1.253136 -2.777344,-2.777344 0,-1.524208 1.253136,-2.777344 2.777344,-2.777344 z"
             inkscape:href="#path1884"
             id="path9647"
             style="fill:none;stroke:#ffffff;stroke-width:0.79014969;stroke-linecap:round;stroke-linejoin:miter;stroke-miterlimit:4;stroke-dasharray:none;stroke-opacity:1"
             xlink:href="#path1884"
             inkscape:original="M 13.4375 16.5 C 9.5186162 16.499999 6.34375 19.657775 6.34375 23.5625 C 6.3437502 26.380698 7.9483759 28.863095 10.34375 30 L 10.34375 31.5 L 11.84375 33 L 10.34375 34.5 L 10.34375 35.5 L 12.34375 36.5 L 12.34375 37.5 L 10.34375 38.5 L 10.34375 39.5 L 11.84375 41 L 10.34375 42.5 L 10.34375 43.5 L 12.84375 45.5 L 15.34375 45.5 L 16.34375 44 L 16.34375 30 C 18.716179 28.854566 20.34375 26.301484 20.34375 23.5 C 20.34375 19.595276 17.356384 16.5 13.4375 16.5 z M 13.34375 18.5 C 14.44775 18.5 15.34375 19.396 15.34375 20.5 C 15.34375 21.604 14.44775 22.5 13.34375 22.5 C 12.23975 22.5 11.34375 21.604 11.34375 20.5 C 11.34375 19.396 12.23975 18.5 13.34375 18.5 z "
             inkscape:radius="-0.77663463"
             sodipodi:type="inkscape:offset" />
          <path
             sodipodi:type="inkscape:offset"
             inkscape:radius="-0.10364762"
             inkscape:original="M 13.40625 17.53125 C 13.179953 17.535742 12.940048 17.565361 12.71875 17.59375 C 11.746507 17.718472 10.844502 18.056009 10.0625 18.5625 C 10.273788 19.382459 10.603512 20.028723 11 20.59375 C 10.998818 20.562191 11 20.531846 11 20.5 C 11 19.119998 12.119999 18 13.5 18 C 14.880001 18 16 19.119998 16 20.5 C 16 21.880003 14.880001 23 13.5 23 C 13.338115 23 13.184591 22.966937 13.03125 22.9375 C 14.159156 24.243071 15.219875 25.922289 15.46875 29.3125 C 17.839227 28.416828 19.53125 26.324417 19.53125 23.5625 C 19.444481 20.923505 17.958879 18.870351 15.46875 17.84375 C 14.777284 17.614671 14.085142 17.517773 13.40625 17.53125 z M 15.46875 31.96875 C 15.356466 34.978468 14.778907 38.970391 13.4375 44.46875 L 14.78125 44.46875 L 15.46875 43.125 L 15.46875 31.96875 z "
             style="opacity:0.6;fill:url(#linearGradient10485);fill-opacity:1;fill-rule:evenodd;stroke:none"
             id="path9649"
             d="m 13.408203,17.634766 c -0.218711,0.0043 -0.454836,0.03416 -0.675781,0.0625 -0.930429,0.119358 -1.792702,0.440585 -2.546875,0.916015 0.175326,0.647181 0.436503,1.168908 0.736328,1.642578 0.125365,-1.319954 1.225798,-2.359375 2.578125,-2.359375 1.436081,0 2.603516,1.167434 2.603516,2.603516 0,1.436083 -1.167435,2.603516 -2.603516,2.603516 -0.08449,0 -0.156276,-0.01959 -0.234375,-0.03125 1.058127,1.270377 2.032881,2.937267 2.291016,6.085937 2.266579,-0.908047 3.869494,-2.924499 3.871093,-5.591797 v -0.002 c -0.08616,-2.598909 -1.537794,-4.608957 -3.992187,-5.623047 -0.680148,-0.225329 -1.359706,-0.319894 -2.027344,-0.30664 z m 1.957031,17.03125 c -0.278874,2.586914 -0.83804,5.74943 -1.796875,9.699218 h 1.150391 l 0.646484,-1.265625 z" />
          <rect
             transform="rotate(90)"
             y="-14.84375"
             x="29"
             height="0.98128641"
             width="16.311773"
             id="rect9651"
             style="opacity:0.61538463;fill:url(#linearGradient9701);fill-opacity:1;fill-rule:evenodd;stroke:none" />
        </g>
        <path
           inkscape:connector-curvature="0"
           style="opacity:0.06086958;fill:#000000;fill-opacity:1;fill-rule:evenodd;stroke:none"
           d="M 15.875,5.21875 C 11.900258,5.3327252 8.3470234,7.9683529 7.25,12.0625 c -0.1125043,0.419871 -0.1648077,0.830596 -0.21875,1.25 0.017549,0.731661 0.1125023,1.472349 0.3125,2.21875 1.3537148,5.052137 6.525304,8.068463 11.5625,6.71875 3.502375,-0.938459 6.0903,-3.730965 6.84375,-7.0625 L 27.3125,14.75 c 0.129705,-0.03775 0.248452,-0.09981 0.3125,-0.21875 L 28.25,13.375 25.53125,12.65625 C 24.764566,9.3333908 22.146582,6.4977316 18.65625,5.5625 17.716152,5.3106016 16.792248,5.192448 15.875,5.21875 Z m -3.1875,6.3125 c 0.136245,0.0081 0.30069,0.02584 0.4375,0.0625 0.884003,0.236868 1.457988,1.037009 1.5,1.90625 0.02217,0.05995 0.04559,0.12438 0.0625,0.1875 0.291059,1.086248 -0.320002,2.177691 -1.40625,2.46875 -1.086248,0.291059 -2.177691,-0.351252 -2.46875,-1.4375 -0.01656,-0.06179 -0.02057,-0.125817 -0.03125,-0.1875 -0.228777,-0.440265 -0.325579,-0.953432 -0.1875,-1.46875 0.256607,-0.95767 1.140038,-1.587763 2.09375,-1.53125 z"
           id="path9653" />
        <g
           id="g9655"
           transform="matrix(-0.3275569,-1.222459,1.222459,-0.3275569,-7.94356,36.230007)">
          <path
             inkscape:connector-curvature="0"
             id="path9657"
             d="m 13.4375,16.5 c -3.9188838,-1e-6 -7.09375,3.157775 -7.09375,7.0625 2e-7,2.818198 1.6046259,5.300595 4,6.4375 v 1.5 l 1.5,1.5 -1.5,1.5 v 1 l 2,1 v 1 l -2,1 v 1 l 1.5,1.5 -1.5,1.5 v 1 l 2.5,2 h 2.5 l 1,-1.5 V 30 c 2.372429,-1.145434 4,-3.698516 4,-6.5 0,-3.904724 -2.987366,-7 -6.90625,-7 z m -0.09375,2 c 1.104,0 2,0.896 2,2 0,1.104 -0.896,2 -2,2 -1.104,0 -2,-0.896 -2,-2 0,-1.104 0.896,-2 2,-2 z"
             style="fill:url(#linearGradient9703);fill-opacity:1;fill-rule:evenodd;stroke:url(#linearGradient9705);stroke-width:0.79014969;stroke-linecap:round;stroke-linejoin:miter;stroke-miterlimit:4;stroke-dasharray:none;stroke-opacity:1"
             sodipodi:nodetypes="csccccccccccccccccsccsssc" />
          <path
             inkscape:connector-curvature="0"
             id="path9659"
             d="M 18.846598,24 H 8.028422 c 0,2.76 2.423271,5 5.409088,5 2.985817,0 5.409088,-2.24 5.409088,-5 z"
             style="opacity:0.58260869;fill:url(#linearGradient9707);fill-opacity:1;fill-rule:evenodd;stroke:none" />
          <path
             d="m 13.4375,17.277344 c -3.5016836,-1e-6 -6.3164062,2.80141 -6.3164062,6.285156 1e-7,2.523398 1.4335564,4.729586 3.5546872,5.736328 A 0.7767123,0.7767123 0 0 1 11.121094,30 v 1.177734 l 1.271484,1.273438 a 0.7767123,0.7767123 0 0 1 0,1.097656 l -1.271484,1.273438 v 0.197265 l 1.570312,0.785157 A 0.7767123,0.7767123 0 0 1 13.121094,36.5 v 1 a 0.7767123,0.7767123 0 0 1 -0.429688,0.695312 l -1.570312,0.785157 v 0.197265 l 1.271484,1.273438 a 0.7767123,0.7767123 0 0 1 0,1.097656 l -1.271484,1.273438 v 0.304687 l 1.99414,1.595703 h 1.8125 l 0.638672,-0.957031 V 30 a 0.7767123,0.7767123 0 0 1 0.439453,-0.699219 c 2.090763,-1.009442 3.560547,-3.300097 3.560547,-5.800781 0,-3.508607 -2.618965,-6.222656 -6.128906,-6.222656 z m -0.09375,0.445312 c 1.524208,0 2.777344,1.253136 2.777344,2.777344 0,1.524208 -1.253136,2.777344 -2.777344,2.777344 -1.524208,0 -2.777344,-1.253136 -2.777344,-2.777344 0,-1.524208 1.253136,-2.777344 2.777344,-2.777344 z"
             inkscape:href="#path1884"
             id="path9661"
             style="fill:none;stroke:#ffffff;stroke-width:0.79014969;stroke-linecap:round;stroke-linejoin:miter;stroke-miterlimit:4;stroke-dasharray:none;stroke-opacity:1"
             xlink:href="#path1884"
             inkscape:original="M 13.4375 16.5 C 9.5186162 16.499999 6.34375 19.657775 6.34375 23.5625 C 6.3437502 26.380698 7.9483759 28.863095 10.34375 30 L 10.34375 31.5 L 11.84375 33 L 10.34375 34.5 L 10.34375 35.5 L 12.34375 36.5 L 12.34375 37.5 L 10.34375 38.5 L 10.34375 39.5 L 11.84375 41 L 10.34375 42.5 L 10.34375 43.5 L 12.84375 45.5 L 15.34375 45.5 L 16.34375 44 L 16.34375 30 C 18.716179 28.854566 20.34375 26.301484 20.34375 23.5 C 20.34375 19.595276 17.356384 16.5 13.4375 16.5 z M 13.34375 18.5 C 14.44775 18.5 15.34375 19.396 15.34375 20.5 C 15.34375 21.604 14.44775 22.5 13.34375 22.5 C 12.23975 22.5 11.34375 21.604 11.34375 20.5 C 11.34375 19.396 12.23975 18.5 13.34375 18.5 z "
             inkscape:radius="-0.77663463"
             sodipodi:type="inkscape:offset" />
          <path
             sodipodi:type="inkscape:offset"
             inkscape:radius="-0.10364762"
             inkscape:original="M 13.40625 17.53125 C 13.179953 17.535742 12.940048 17.565361 12.71875 17.59375 C 11.746507 17.718472 10.844502 18.056009 10.0625 18.5625 C 10.273788 19.382459 10.603512 20.028723 11 20.59375 C 10.998818 20.562191 11 20.531846 11 20.5 C 11 19.119998 12.119999 18 13.5 18 C 14.880001 18 16 19.119998 16 20.5 C 16 21.880003 14.880001 23 13.5 23 C 13.338115 23 13.184591 22.966937 13.03125 22.9375 C 14.159156 24.243071 15.219875 25.922289 15.46875 29.3125 C 17.839227 28.416828 19.53125 26.324417 19.53125 23.5625 C 19.444481 20.923505 17.958879 18.870351 15.46875 17.84375 C 14.777284 17.614671 14.085142 17.517773 13.40625 17.53125 z M 15.46875 31.96875 C 15.356466 34.978468 14.778907 38.970391 13.4375 44.46875 L 14.78125 44.46875 L 15.46875 43.125 L 15.46875 31.96875 z "
             style="opacity:0.6;fill:url(#linearGradient9689);fill-opacity:1;fill-rule:evenodd;stroke:none"
             id="path9663"
             d="m 13.408203,17.634766 c -0.218711,0.0043 -0.454836,0.03416 -0.675781,0.0625 -0.930429,0.119358 -1.792702,0.440585 -2.546875,0.916015 0.175326,0.647181 0.436503,1.168908 0.736328,1.642578 0.125365,-1.319954 1.225798,-2.359375 2.578125,-2.359375 1.436081,0 2.603516,1.167434 2.603516,2.603516 0,1.436083 -1.167435,2.603516 -2.603516,2.603516 -0.08449,0 -0.156276,-0.01959 -0.234375,-0.03125 1.058127,1.270377 2.032881,2.937267 2.291016,6.085937 2.266579,-0.908047 3.869494,-2.924499 3.871093,-5.591797 v -0.002 c -0.08616,-2.598909 -1.537794,-4.608957 -3.992187,-5.623047 -0.680148,-0.225329 -1.359706,-0.319894 -2.027344,-0.30664 z m 1.957031,17.03125 c -0.278874,2.586914 -0.83804,5.74943 -1.796875,9.699218 h 1.150391 l 0.646484,-1.265625 z" />
          <rect
             transform="rotate(90)"
             y="-14.84375"
             x="29"
             height="0.98128641"
             width="16.311773"
             id="rect9665"
             style="opacity:0.61538463;fill:url(#linearGradient9711);fill-opacity:1;fill-rule:evenodd;stroke:none" />
        </g>
        <path
           inkscape:connector-curvature="0"
           id="path9667"
           d="m 4.8047213,30.320897 c -2.594124,1.590124 -3.420072,-0.939029 -1.843632,-5.645432 1.57644,-4.706403 4.961246,-9.816629 7.5553707,-11.406753 1.287243,-0.789043 2.112963,-0.643566 2.478739,0.43671"
           style="fill:none;stroke:url(#radialGradient9713);stroke-width:3;stroke-linecap:round;stroke-linejoin:miter;stroke-miterlimit:4;stroke-dashoffset:0.69999993;stroke-opacity:1" />
        <ellipse
           ry="0.5625"
           rx="0.90625"
           cy="2.0625"
           cx="11.15625"
           transform="matrix(0,-1.5911082,2.563452,0,-2.9276547,44.523509)"
           id="path9669"
           style="display:inline;overflow:visible;visibility:visible;fill:url(#radialGradient9715);fill-opacity:1;fill-rule:evenodd;stroke:none;marker:none;enable-background:accumulate" />
        <path
           inkscape:connector-curvature="0"
           id="path9671"
           d="m 7.7427353,27.481458 c -3.035225,3.850351 -5.535396,4.427652 -5.58074,1.288619 -0.045344,-3.139033 2.381226,-8.811576 5.416451,-12.661926 2.9889427,-3.791641 5.4609727,-4.422284 5.5771947,-1.422808"
           style="fill:none;stroke:url(#radialGradient9717);stroke-width:1;stroke-linecap:round;stroke-linejoin:miter;stroke-miterlimit:4;stroke-dashoffset:0.69999993;stroke-opacity:1" />
        <path
           inkscape:connector-curvature="0"
           sodipodi:nodetypes="cc"
           id="path9673"
           d="M 7.5779723,16.108752 C 10.567078,12.316634 13.039412,11.6857 13.155641,14.685343"
           style="opacity:0.10407242;fill:none;stroke:url(#linearGradient9719);stroke-width:1;stroke-linecap:round;stroke-linejoin:miter;stroke-miterlimit:4;stroke-dashoffset:0.69999993;stroke-opacity:1" />
        <ellipse
           ry="0.5625"
           rx="0.90625"
           cy="2.0625"
           cx="11.15625"
           transform="matrix(0,-1.1034483,1.7777778,0,-1.2851047,38.994666)"
           id="path9675"
           style="display:inline;overflow:visible;visibility:visible;fill:#ffffff;fill-opacity:1;fill-rule:evenodd;stroke:none;marker:none;enable-background:accumulate" />
      </g>
      <text
         id="text8278"
         y="166.45976"
         x="40.410439"
         style="font-style:normal;font-variant:normal;font-weight:normal;font-stretch:normal;font-size:3.52777791px;line-height:0%;font-family:'Andale Mono';-inkscape-font-specification:'Andale Mono';text-align:start;writing-mode:lr-tb;text-anchor:start;fill:#ffffff;fill-opacity:1;stroke:none;stroke-width:0.33072916"
         xml:space="preserve"><tspan
           id="tspan8453"
           style="font-style:normal;font-variant:normal;font-weight:normal;font-stretch:normal;font-size:3.52777791px;line-height:100%;font-family:monospace;-inkscape-font-specification:Monospace;text-align:start;writing-mode:lr-tb;text-anchor:start;fill:#ffffff;fill-opacity:1;stroke-width:0.33072916"
           y="166.45976"
           x="40.410439"
           sodipodi:role="line">ACCESS RIGHTS</tspan></text>
      <g
         transform="matrix(0.97,0,0,0.97,1.7548216,4.058264)"
         id="g806">
        <text
           xml:space="preserve"
           style="font-style:normal;font-weight:normal;font-size:3.96875px;line-height:0%;font-family:'Bitstream Vera Sans';-inkscape-font-specification:Monospace;fill:#000000;fill-opacity:1;stroke:none;stroke-width:0.33072916"
           x="31.117945"
           y="116.03583"
           id="text8669"><tspan
             sodipodi:role="line"
             x="31.117945"
             y="116.03583"
             style="font-style:normal;font-variant:normal;font-weight:normal;font-stretch:normal;font-size:2.11666679px;line-height:1.25;font-family:monospace;-inkscape-font-specification:Monospace;stroke-width:0.33072916"
             id="tspan2475"><tspan
   style="font-style:normal;font-weight:bold;font-family:monospace;-inkscape-font-specification:Monospace;stroke-width:0.33072916"
   id="tspan2477">su </tspan>-l [user]   change to root [or to USER]</tspan><tspan
             sodipodi:role="line"
             x="31.117945"
             y="118.68166"
             style="font-style:normal;font-variant:normal;font-weight:normal;font-stretch:normal;font-size:2.11666679px;line-height:1.25;font-family:monospace;-inkscape-font-specification:Monospace;stroke-width:0.33072916"
             id="tspan2485"><tspan
   style="font-weight:bold;stroke-width:0.33072916"
   id="tspan2487">passwd</tspan> [user]   change password [of USER]   </tspan><tspan
             sodipodi:role="line"
             x="31.117945"
             y="121.32749"
             style="font-style:normal;font-variant:normal;font-weight:normal;font-stretch:normal;font-size:2.11666679px;line-height:1.25;font-family:monospace;-inkscape-font-specification:Monospace;stroke-width:0.33072916"
             id="tspan2463"><tspan
   style="font-style:normal;font-weight:bold;font-family:monospace;-inkscape-font-specification:Monospace;stroke-width:0.33072916"
   id="tspan2465">sudo</tspan> command   execute COMMAND as root </tspan><tspan
             sodipodi:role="line"
             x="31.117945"
             y="123.97333"
             style="font-style:normal;font-variant:normal;font-weight:normal;font-stretch:normal;font-size:2.11666679px;line-height:1.25;font-family:monospace;-inkscape-font-specification:Monospace;stroke-width:0.33072916"
             id="tspan5279">   [package Core: sudo]  </tspan><tspan
             sodipodi:role="line"
             x="31.117945"
             y="126.61916"
             style="font-style:normal;font-variant:normal;font-weight:normal;font-stretch:normal;font-size:2.11666679px;line-height:1.25;font-family:monospace;-inkscape-font-specification:Monospace;stroke-width:0.33072916"
             id="tspan8677"><tspan
   style="font-style:normal;font-weight:bold;font-family:monospace;-inkscape-font-specification:Monospace;stroke-width:0.33072916"
   id="tspan3861">sudo</tspan> -k   empty password cache</tspan><tspan
             sodipodi:role="line"
             x="31.117945"
             y="129.265"
             style="font-style:normal;font-variant:normal;font-weight:normal;font-stretch:normal;font-size:2.11666679px;line-height:1.25;font-family:monospace;-inkscape-font-specification:Monospace;stroke-width:0.33072916"
             id="tspan8679"><tspan
   style="font-style:normal;font-weight:bold;font-family:monospace;-inkscape-font-specification:Monospace;stroke-width:0.33072916"
   id="tspan3859">sudo</tspan> visudo   edit /etc/sudoers</tspan><tspan
             sodipodi:role="line"
             x="31.117945"
             y="131.91083"
             style="font-style:normal;font-variant:normal;font-weight:normal;font-stretch:normal;font-size:2.11666679px;line-height:1.25;font-family:monospace;-inkscape-font-specification:Monospace;stroke-width:0.33072916"
             id="tspan8685"><tspan
   style="font-style:normal;font-weight:bold;font-family:monospace;-inkscape-font-specification:Monospace;stroke-width:0.33072916"
   id="tspan3855">chown</tspan><tspan
   style="font-style:italic;font-family:monospace;-inkscape-font-specification:'Monospace Italic';stroke-width:0.33072916"
   id="tspan4154"> owner</tspan>:<tspan
   style="font-style:italic;font-family:monospace;-inkscape-font-specification:'Monospace Italic';stroke-width:0.33072916"
   id="tspan4156">group</tspan> file   change owner and</tspan><tspan
             sodipodi:role="line"
             x="31.117945"
             y="134.55666"
             style="font-style:normal;font-variant:normal;font-weight:normal;font-stretch:normal;font-size:2.11666679px;line-height:1.25;font-family:monospace;-inkscape-font-specification:Monospace;stroke-width:0.33072916"
             id="tspan8687">   group of FILE</tspan><tspan
             sodipodi:role="line"
             x="31.117945"
             y="137.2025"
             style="font-style:normal;font-variant:normal;font-weight:normal;font-stretch:normal;font-size:2.11666679px;line-height:1.25;font-family:monospace;-inkscape-font-specification:Monospace;stroke-width:0.33072916"
             id="tspan4158"><tspan
   style="font-style:normal;font-weight:bold;font-family:monospace;-inkscape-font-specification:Monospace;stroke-width:0.33072916"
   id="tspan3853">chmod</tspan><tspan
   style="font-style:italic;font-family:monospace;-inkscape-font-specification:'Monospace Italic';stroke-width:0.33072916"
   id="tspan4165"> permissions file   </tspan>change permissions</tspan><tspan
             sodipodi:role="line"
             x="31.117945"
             y="139.84833"
             style="font-style:normal;font-variant:normal;font-weight:normal;font-stretch:normal;font-size:2.11666679px;line-height:1.25;font-family:monospace;-inkscape-font-specification:Monospace;stroke-width:0.33072916"
             id="tspan8705">   of FILE</tspan><tspan
             sodipodi:role="line"
             x="31.117945"
             y="142.49416"
             style="font-style:normal;font-variant:normal;font-weight:normal;font-stretch:normal;font-size:2.11666679px;line-height:1.25;font-family:monospace;-inkscape-font-specification:Monospace;stroke-width:0.33072916"
             id="tspan2501">   to set permissions in octal mode: </tspan><tspan
             sodipodi:role="line"
             x="31.117945"
             y="145.14"
             style="font-style:normal;font-variant:normal;font-weight:normal;font-stretch:normal;font-size:2.11666679px;line-height:1.25;font-family:monospace;-inkscape-font-specification:Monospace;stroke-width:0.33072916"
             id="tspan8709">   4(read) 2(write) 1(execute)</tspan><tspan
             sodipodi:role="line"
             x="31.117945"
             y="147.78583"
             style="font-style:normal;font-variant:normal;font-weight:normal;font-stretch:normal;font-size:2.11666679px;line-height:1.25;font-family:monospace;-inkscape-font-specification:Monospace;stroke-width:0.33072916"
             id="tspan8711">   e.g. 755 read-write-execute for owner </tspan><tspan
             sodipodi:role="line"
             x="31.117945"
             y="150.43166"
             style="font-style:normal;font-variant:normal;font-weight:normal;font-stretch:normal;font-size:2.11666679px;line-height:1.25;font-family:monospace;-inkscape-font-specification:Monospace;stroke-width:0.33072916"
             id="tspan4171">   and read-execute for group and others</tspan><tspan
             sodipodi:role="line"
             x="31.117945"
             y="153.0775"
             style="font-style:normal;font-variant:normal;font-weight:normal;font-stretch:normal;font-size:2.11666679px;line-height:1.25;font-family:monospace;-inkscape-font-specification:Monospace;stroke-width:0.33072916"
             id="tspan4181"><tspan
   style="font-style:normal;font-weight:bold;font-family:monospace;-inkscape-font-specification:Monospace;stroke-width:0.33072916"
   id="tspan3908">ls</tspan> -lh [<tspan
   style="font-style:italic;font-family:monospace;-inkscape-font-specification:'Monospace Italic';stroke-width:0.33072916"
   id="tspan4191">dir</tspan>]   display files and</tspan><tspan
             sodipodi:role="line"
             x="31.117945"
             y="155.72333"
             style="font-style:normal;font-variant:normal;font-weight:normal;font-stretch:normal;font-size:2.11666679px;line-height:1.25;font-family:monospace;-inkscape-font-specification:Monospace;stroke-width:0.33072916"
             id="tspan4187">   permissions [of DIR]</tspan></text>
        <path
           inkscape:connector-curvature="0"
           id="path3488-3-6-43"
           d="m 49.016607,115.16431 c -0.0521,-0.0392 -0.110659,-0.0773 -0.17398,-0.11451 l -0.651375,0.0379 c 0.03431,0.0398 0.06257,0.0797 0.0849,0.11989 z m 0.219055,0.23566 -0.901204,0.0522 c -0.02408,0.2891 -0.381334,0.5876 -1.169505,0.89739 0.406883,-0.0363 2.305579,-0.32915 2.089197,-0.90916 -0.0051,-0.0135 -0.01154,-0.0271 -0.01849,-0.0404 z m -0.681372,-0.49912 c -0.08307,-0.0383 -0.169786,-0.0749 -0.257621,-0.10991 l -0.430993,0.0249 c 0.0586,0.0383 0.112074,0.077 0.160374,0.11567 z m -0.4458,-0.18199 c -0.558482,-0.20388 -1.107827,-0.33154 -1.107827,-0.33154 0.289468,0.11618 0.539423,0.23369 0.742491,0.35268 z"
           style="display:inline;fill:#787dab;fill-opacity:1;stroke-width:0.01852083"
           inkscape:transform-center-x="-21.013201"
           inkscape:transform-center-y="-21.509821" />
        <path
           inkscape:connector-curvature="0"
           id="path3488-3-6-0"
           d="m 50.381523,117.99913 c -0.0521,-0.0392 -0.110659,-0.0772 -0.17398,-0.11451 l -0.651375,0.0379 c 0.03431,0.0398 0.06257,0.0797 0.0849,0.1199 z m 0.219055,0.23566 -0.901204,0.0522 c -0.02408,0.2891 -0.381334,0.5876 -1.169505,0.89739 0.406883,-0.0363 2.305579,-0.32915 2.089197,-0.90917 -0.0051,-0.0135 -0.01154,-0.0271 -0.01849,-0.0404 z m -0.681372,-0.49912 c -0.08307,-0.0383 -0.169786,-0.0749 -0.257621,-0.10992 l -0.430993,0.0249 c 0.0586,0.0384 0.112074,0.077 0.160374,0.11567 z m -0.4458,-0.18199 c -0.558482,-0.20388 -1.107827,-0.33154 -1.107827,-0.33154 0.289468,0.11618 0.539423,0.23369 0.742491,0.35268 z"
           style="display:inline;fill:#787dab;fill-opacity:1;stroke-width:0.01852083"
           inkscape:transform-center-x="-21.013201"
           inkscape:transform-center-y="-21.509821" />
        <path
           inkscape:connector-curvature="0"
           id="path3488-3-6-30"
           d="m 49.33159,120.41398 c -0.0521,-0.0392 -0.110659,-0.0772 -0.17398,-0.11451 l -0.651375,0.0379 c 0.03431,0.0398 0.06257,0.0797 0.0849,0.1199 z m 0.219055,0.23566 -0.901204,0.0522 c -0.02408,0.2891 -0.381334,0.5876 -1.169505,0.89738 0.406883,-0.0363 2.30558,-0.32914 2.089197,-0.90916 -0.0051,-0.0135 -0.01154,-0.0271 -0.01849,-0.0404 z m -0.681372,-0.49912 c -0.08307,-0.0383 -0.169786,-0.075 -0.257621,-0.10992 l -0.430993,0.0249 c 0.0586,0.0384 0.112074,0.077 0.160374,0.11567 z m -0.445799,-0.18199 c -0.558483,-0.20388 -1.107827,-0.33155 -1.107827,-0.33155 0.289467,0.11619 0.539422,0.2337 0.74249,0.35269 z"
           style="display:inline;fill:#787dab;fill-opacity:1;stroke-width:0.01852083"
           inkscape:transform-center-x="-21.013201"
           inkscape:transform-center-y="-21.509821" />
        <path
           inkscape:connector-curvature="0"
           id="path3488-3-6-92"
           d="m 42.612013,125.87364 c -0.0521,-0.0392 -0.110659,-0.0773 -0.17398,-0.11452 l -0.651374,0.0379 c 0.03431,0.0398 0.06257,0.0797 0.08489,0.11989 z m 0.219055,0.23566 -0.901204,0.0522 c -0.02408,0.2891 -0.381334,0.58761 -1.169504,0.89739 0.406883,-0.0363 2.305579,-0.32914 2.089196,-0.90916 -0.0051,-0.0135 -0.01154,-0.0271 -0.01849,-0.0404 z m -0.681371,-0.49912 c -0.08307,-0.0383 -0.169787,-0.075 -0.257622,-0.10992 l -0.430993,0.0249 c 0.0586,0.0384 0.112074,0.077 0.160374,0.11566 z m -0.4458,-0.182 c -0.558483,-0.20387 -1.107827,-0.33154 -1.107827,-0.33154 0.289467,0.11619 0.539423,0.2337 0.74249,0.35269 z"
           style="display:inline;fill:#787dab;fill-opacity:1;stroke-width:0.01852083"
           inkscape:transform-center-x="-21.013201"
           inkscape:transform-center-y="-21.509821" />
        <path
           inkscape:connector-curvature="0"
           id="path3488-3-6-54"
           d="m 47.861681,128.39348 c -0.0521,-0.0392 -0.110659,-0.0773 -0.173981,-0.11452 l -0.651374,0.0379 c 0.03431,0.0398 0.06257,0.0797 0.08489,0.1199 z m 0.219055,0.23566 -0.901204,0.0522 c -0.02408,0.2891 -0.381334,0.5876 -1.169505,0.89738 0.406883,-0.0363 2.305579,-0.32914 2.089196,-0.90916 -0.0051,-0.0135 -0.01154,-0.0271 -0.01849,-0.0404 z m -0.681372,-0.49912 c -0.08307,-0.0383 -0.169786,-0.075 -0.257621,-0.10992 l -0.430993,0.0249 c 0.0586,0.0384 0.112074,0.077 0.160373,0.11567 z m -0.4458,-0.18199 c -0.558482,-0.20388 -1.107827,-0.33155 -1.107827,-0.33155 0.289468,0.11619 0.539423,0.2337 0.742491,0.35269 z"
           style="display:inline;fill:#787dab;fill-opacity:1;stroke-width:0.01852083"
           inkscape:transform-center-x="-21.013201"
           inkscape:transform-center-y="-21.509821" />
        <path
           inkscape:connector-curvature="0"
           id="path3488-3-6-05"
           d="m 61.615814,131.2283 c -0.0521,-0.0392 -0.110659,-0.0773 -0.17398,-0.11452 l -0.651375,0.0379 c 0.03431,0.0398 0.06257,0.0797 0.0849,0.11989 z m 0.219055,0.23566 -0.901204,0.0522 c -0.02408,0.28911 -0.381334,0.58761 -1.169505,0.89739 0.406883,-0.0363 2.30558,-0.32914 2.089197,-0.90916 -0.0051,-0.0135 -0.01154,-0.0271 -0.01849,-0.0404 z m -0.681372,-0.49912 c -0.08307,-0.0383 -0.169786,-0.075 -0.257621,-0.10992 l -0.430993,0.0249 c 0.0586,0.0383 0.112074,0.077 0.160374,0.11566 z m -0.445799,-0.18199 c -0.558483,-0.20388 -1.107827,-0.33155 -1.107827,-0.33155 0.289467,0.11619 0.539422,0.2337 0.74249,0.35269 z"
           style="display:inline;fill:#787dab;fill-opacity:1;stroke-width:0.01852083"
           inkscape:transform-center-x="-21.013201"
           inkscape:transform-center-y="-21.509821" />
        <path
           inkscape:connector-curvature="0"
           id="path3488-3-6-94"
           d="m 61.720807,136.26798 c -0.0521,-0.0392 -0.110659,-0.0772 -0.17398,-0.11451 l -0.651374,0.0379 c 0.03431,0.0398 0.06257,0.0797 0.08489,0.11989 z m 0.219055,0.23566 -0.901204,0.0522 c -0.02408,0.2891 -0.381334,0.5876 -1.169504,0.89739 0.406882,-0.0363 2.305579,-0.32915 2.089196,-0.90917 -0.0051,-0.0135 -0.01154,-0.0271 -0.01849,-0.0404 z m -0.681371,-0.49912 c -0.08307,-0.0383 -0.169787,-0.0749 -0.257622,-0.10991 l -0.430993,0.0249 c 0.0586,0.0383 0.112074,0.077 0.160374,0.11567 z m -0.4458,-0.18199 c -0.558483,-0.20388 -1.107827,-0.33154 -1.107827,-0.33154 0.289467,0.11618 0.539422,0.23369 0.74249,0.35268 z"
           style="display:inline;fill:#787dab;fill-opacity:1;stroke-width:0.01852083"
           inkscape:transform-center-x="-21.013201"
           inkscape:transform-center-y="-21.509821" />
        <path
           inkscape:connector-curvature="0"
           id="path3488-3-6-69"
           d="m 49.01661,152.12198 c -0.0521,-0.0392 -0.110659,-0.0773 -0.17398,-0.11451 l -0.651375,0.0379 c 0.03431,0.0398 0.06257,0.0797 0.0849,0.11989 z m 0.219055,0.23566 -0.901204,0.0522 c -0.02408,0.2891 -0.381334,0.5876 -1.169504,0.89739 0.406882,-0.0363 2.305579,-0.32914 2.089196,-0.90916 -0.0051,-0.0135 -0.01154,-0.0271 -0.01849,-0.0404 z m -0.681371,-0.49912 c -0.08307,-0.0383 -0.169787,-0.0749 -0.257622,-0.10991 l -0.430993,0.0249 c 0.0586,0.0384 0.112074,0.077 0.160374,0.11567 z m -0.4458,-0.18199 c -0.558483,-0.20388 -1.107827,-0.33154 -1.107827,-0.33154 0.289467,0.11618 0.539422,0.23369 0.74249,0.35269 z"
           style="display:inline;fill:#787dab;fill-opacity:1;stroke-width:0.01852083"
           inkscape:transform-center-x="-21.013201"
           inkscape:transform-center-y="-21.509821" />
      </g>
    </g>
  </g>
</svg>
